{
  "frameworks": {
    "net46":{
      "dependencies": {
          "Serilog": "2.0.0",
          "Serilog.Enrichers.Process": "2.0.1",
          "Serilog.Extensions.Logging": "1.1.0",
          "Serilog.Sinks.Logentries": "2.0.15"
      }
    }
   }
}